M48
METRIC,TZ
T1C0.400
T2C0.635
T3C1.016
%
G90
G05
T1
X87750Y-109250
X97250Y-100750
X99500Y-90000
X100500Y-85000
X100500Y-93325
X102850Y-98300
X105500Y-88000
X107700Y-75400
X107700Y-84500
X109700Y-89900
X109700Y-94500
X111150Y-81175
T2
X90195Y-88390
T3
X87655Y-83310
X87655Y-85850
X87655Y-88390
X90195Y-83310
X90195Y-85850
X90195Y-88390
X112250Y-86440
X112250Y-88980
X112250Y-91520
X112250Y-94060
T0
M30
