PCBNEW-LibModule-V1
$INDEX
LOGO
$EndINDEX
#
# LOGO
# pixmap w = 591, h = 244
#
$MODULE LOGO
Po 0 0 0 15 00000000 00000000 ~~
Li LOGO
T0 0 4366 600 600 0 120 N I 21 "A*"
T1 0 -4366 600 600 0 120 N I 21 "AntennaTag"
DP 0 0 0 0 74 1 15
Dl 9867 3833
Dl 5025 3842
Dl 183 3850
Dl 173 3959
Dl 152 4037
Dl 117 4067
Dl 80 4037
Dl 60 3959
Dl 63 3878
Dl 95 3819
Dl 163 3777
Dl 275 3751
Dl 438 3737
Dl 659 3733
Dl 1083 3732
Dl 1533 3185
Dl 1983 2637
Dl 2775 2635
Dl 3567 2634
Dl 3567 1067
Dl 3567 -500
Dl 2783 -500
Dl 2000 -500
Dl 2000 -116
Dl 2000 267
Dl 17 267
Dl -1967 267
Dl -1967 -116
Dl -1967 -500
Dl -2750 -500
Dl -3533 -500
Dl -3533 1067
Dl -3533 2634
Dl -2742 2635
Dl -1950 2637
Dl -1500 3185
Dl -1050 3732
Dl -626 3733
Dl -404 3737
Dl -241 3751
Dl -130 3777
Dl -62 3819
Dl -30 3878
Dl -27 3959
Dl -48 4037
Dl -83 4067
Dl -120 4037
Dl -140 3959
Dl -150 3850
Dl -4973 3842
Dl -9796 3833
Dl -9810 3942
Dl -9816 3974
Dl -9817 3945
Dl -9813 3884
Dl -9811 3829
Dl -9810 3712
Dl -9808 3537
Dl -9807 3309
Dl -9806 3031
Dl -9804 2709
Dl -9803 2346
Dl -9803 1947
Dl -9802 1517
Dl -9801 1060
Dl -9801 579
Dl -9800 80
Dl -9800 -158
Dl -9800 -4033
Dl 33 -4033
Dl 9867 -4033
Dl 9867 -100
Dl 9867 3833
Dl 9867 3833
$EndMODULE LOGO
$EndLIBRARY
