PCBNEW-LibModule-V1
$INDEX
AntennaTag
$EndINDEX
#
# AntennaTag
# pixmap w = 331, h = 208
#
$MODULE AntennaTag
Po 0 0 0 15 00000000 00000000 ~~
Li AntennaTag
T0 0 3766 600 600 0 120 N I 21 "A*"
T1 0 -3766 600 600 0 120 N I 21 "AntennaTag"
DP 0 0 0 0 88 1 15
Dl 5533 3234
Dl 2902 3234
Dl 2488 3234
Dl 2093 3234
Dl 1722 3236
Dl 1380 3237
Dl 1072 3239
Dl 803 3241
Dl 579 3244
Dl 404 3247
Dl 284 3250
Dl 224 3253
Dl 219 3254
Dl 178 3301
Dl 166 3370
Dl 151 3447
Dl 116 3467
Dl 76 3441
Dl 64 3377
Dl 78 3297
Dl 117 3223
Dl 141 3198
Dl 181 3172
Dl 234 3154
Dl 314 3143
Dl 432 3137
Dl 601 3135
Dl 650 3135
Dl 1083 3134
Dl 1542 2584
Dl 2000 2034
Dl 2783 2034
Dl 3566 2034
Dl 3566 467
Dl 3566 -1100
Dl 2766 -1100
Dl 1966 -1100
Dl 1966 -716
Dl 1966 -333
Dl 16 -333
Dl -1934 -333
Dl -1934 -716
Dl -1934 -1100
Dl -2734 -1100
Dl -3534 -1100
Dl -3534 467
Dl -3534 2034
Dl -2752 2034
Dl -1970 2034
Dl -1510 2583
Dl -1050 3132
Dl -617 3134
Dl -404 3138
Dl -248 3151
Dl -142 3177
Dl -77 3218
Dl -43 3278
Dl -34 3361
Dl -34 3364
Dl -49 3444
Dl -82 3469
Dl -118 3439
Dl -140 3359
Dl -150 3250
Dl -2807 3242
Dl -5463 3233
Dl -5477 3342
Dl -5483 3374
Dl -5484 3345
Dl -5480 3284
Dl -5478 3227
Dl -5476 3109
Dl -5475 2933
Dl -5473 2705
Dl -5472 2430
Dl -5471 2113
Dl -5470 1757
Dl -5469 1369
Dl -5468 952
Dl -5468 512
Dl -5468 54
Dl -5467 -158
Dl -5467 -3433
Dl 33 -3433
Dl 5533 -3433
Dl 5533 -100
Dl 5533 3234
Dl 5533 3234
$EndMODULE AntennaTag
$EndLIBRARY
