EESchema Schematic File Version 2
LIBS:power
LIBS:device
LIBS:transistors
LIBS:conn
LIBS:linear
LIBS:regul
LIBS:74xx
LIBS:cmos4000
LIBS:adc-dac
LIBS:memory
LIBS:xilinx
LIBS:special
LIBS:microcontrollers
LIBS:dsp
LIBS:microchip
LIBS:analog_switches
LIBS:motorola
LIBS:texas
LIBS:intel
LIBS:audio
LIBS:interface
LIBS:digital-audio
LIBS:philips
LIBS:display
LIBS:cypress
LIBS:siliconi
LIBS:opto
LIBS:atmel
LIBS:contrib
LIBS:valves
LIBS:ucode_1-cache
EELAYER 27 0
EELAYER END
$Descr A4 11693 8268
encoding utf-8
Sheet 1 1
Title ""
Date "27 jun 2016"
Rev ""
Comp ""
Comment1 ""
Comment2 ""
Comment3 ""
Comment4 ""
$EndDescr
$Comp
L PIC12C508A U1
U 1 1 5765E34F
P 1950 1600
F 0 "U1" H 1950 2300 60  0000 C CNN
F 1 "UCODE_I2C" H 1950 950 60  0000 C CNN
F 2 "" H 1950 1600 60  0000 C CNN
F 3 "" H 1950 1600 60  0000 C CNN
	1    1950 1600
	1    0    0    -1  
$EndComp
$Comp
L GND #PWR01
U 1 1 5765E42E
P 2650 1150
F 0 "#PWR01" H 2650 1150 30  0001 C CNN
F 1 "GND" H 2650 1080 30  0001 C CNN
F 2 "" H 2650 1150 60  0000 C CNN
F 3 "" H 2650 1150 60  0000 C CNN
	1    2650 1150
	1    0    0    -1  
$EndComp
$Comp
L VDD #PWR02
U 1 1 5765E463
P 1200 2050
F 0 "#PWR02" H 1200 2150 30  0001 C CNN
F 1 "VDD" H 1200 2160 30  0000 C CNN
F 2 "" H 1200 2050 60  0000 C CNN
F 3 "" H 1200 2050 60  0000 C CNN
	1    1200 2050
	1    0    0    -1  
$EndComp
$Comp
L R A1
U 1 1 5765E4DF
P 800 1250
F 0 "A1" V 880 1250 40  0000 C CNN
F 1 "Antenna" V 807 1251 40  0000 C CNN
F 2 "~" V 730 1250 30  0000 C CNN
F 3 "~" H 800 1250 30  0000 C CNN
	1    800  1250
	-1   0    0    1   
$EndComp
$Comp
L VDD #PWR03
U 1 1 5765E5FF
P 3650 1850
F 0 "#PWR03" H 3650 1950 30  0001 C CNN
F 1 "VDD" H 3650 1960 30  0000 C CNN
F 2 "" H 3650 1850 60  0000 C CNN
F 3 "" H 3650 1850 60  0000 C CNN
	1    3650 1850
	1    0    0    -1  
$EndComp
$Comp
L GND #PWR04
U 1 1 5765E607
P 3650 2100
F 0 "#PWR04" H 3650 2100 30  0001 C CNN
F 1 "GND" H 3650 2030 30  0001 C CNN
F 2 "" H 3650 2100 60  0000 C CNN
F 3 "" H 3650 2100 60  0000 C CNN
	1    3650 2100
	1    0    0    -1  
$EndComp
$Comp
L PIC16F54 U2
U 1 1 5765E286
P 4650 2200
F 0 "U2" H 4650 1450 60  0000 C CNN
F 1 "QG8" H 4650 3000 60  0000 C CNN
F 2 "" H 4650 2200 60  0000 C CNN
F 3 "" H 4650 2200 60  0000 C CNN
	1    4650 2200
	1    0    0    -1  
$EndComp
Wire Wire Line
	2650 1100 2650 1150
Wire Wire Line
	1200 2100 1200 2050
Wire Wire Line
	800  1000 1050 1000
Wire Wire Line
	1050 1000 1050 1100
Wire Wire Line
	1050 1100 1200 1100
Wire Wire Line
	800  1500 1050 1500
Wire Wire Line
	1050 1500 1050 1400
Wire Wire Line
	1050 1400 1200 1400
Wire Wire Line
	3850 1900 3650 1900
Wire Wire Line
	3650 1900 3650 1850
Wire Wire Line
	3650 2100 3650 2050
Wire Wire Line
	3650 2050 3850 2050
$Comp
L CONN_3X2 Prog_QG8
U 1 1 5765E9EC
P 4250 950
F 0 "Prog_QG8" H 4250 750 50  0000 C CNN
F 1 "CONN_3X2" V 4250 1000 40  0000 C CNN
F 2 "" H 4250 950 60  0000 C CNN
F 3 "" H 4250 950 60  0000 C CNN
	1    4250 950 
	1    0    0    1   
$EndComp
Wire Wire Line
	3850 1100 3750 1100
Wire Wire Line
	3750 1100 3750 1750
$Comp
L VDD #PWR05
U 1 1 5765EA35
P 4650 850
F 0 "#PWR05" H 4650 950 30  0001 C CNN
F 1 "VDD" H 4650 960 30  0000 C CNN
F 2 "" H 4650 850 60  0000 C CNN
F 3 "" H 4650 850 60  0000 C CNN
	1    4650 850 
	1    0    0    -1  
$EndComp
Wire Wire Line
	4650 900  4650 850 
Text GLabel 3000 1600 2    60   Input ~ 0
U1_SCL
Text GLabel 3000 2100 2    60   Input ~ 0
U1_SDA
Text GLabel 5650 2350 2    60   Input ~ 0
U2_SCL
Text GLabel 5650 2200 2    60   Input ~ 0
U2_SDA
Wire Wire Line
	1200 1600 1200 1800
Wire Wire Line
	3000 1600 1200 1600
$Comp
L CONN_4 S1
U 1 1 5765EB6E
P 10950 3250
F 0 "S1" V 10900 3250 50  0000 C CNN
F 1 "DHT22" V 11000 3250 50  0000 C CNN
F 2 "" H 10950 3250 60  0000 C CNN
F 3 "" H 10950 3250 60  0000 C CNN
	1    10950 3250
	1    0    0    -1  
$EndComp
$Comp
L VDD #PWR06
U 1 1 5765EBC7
P 10150 3750
F 0 "#PWR06" H 10150 3850 30  0001 C CNN
F 1 "VDD" H 10150 3860 30  0000 C CNN
F 2 "" H 10150 3750 60  0000 C CNN
F 3 "" H 10150 3750 60  0000 C CNN
	1    10150 3750
	1    0    0    1   
$EndComp
$Comp
L R R1
U 1 1 5765EC09
P 10150 3450
F 0 "R1" V 10230 3450 40  0000 C CNN
F 1 "2k" V 10157 3451 40  0000 C CNN
F 2 "~" V 10080 3450 30  0000 C CNN
F 3 "~" H 10150 3450 30  0000 C CNN
	1    10150 3450
	1    0    0    1   
$EndComp
Wire Wire Line
	9900 3200 10600 3200
Text GLabel 9900 3200 0    60   Input ~ 0
DATA_SENSOR
Text GLabel 5650 2750 2    60   Input ~ 0
DATA_SENSOR
Connection ~ 10150 3200
$Comp
L CONN_2 B1
U 1 1 5765ED56
P 10950 850
F 0 "B1" V 10900 850 40  0000 C CNN
F 1 "BATTERY" V 11000 850 40  0000 C CNN
F 2 "" H 10950 850 60  0000 C CNN
F 3 "" H 10950 850 60  0000 C CNN
	1    10950 850 
	1    0    0    -1  
$EndComp
$Comp
L GND #PWR07
U 1 1 5765ED73
P 10600 1000
F 0 "#PWR07" H 10600 1000 30  0001 C CNN
F 1 "GND" H 10600 930 30  0001 C CNN
F 2 "" H 10600 1000 60  0000 C CNN
F 3 "" H 10600 1000 60  0000 C CNN
	1    10600 1000
	1    0    0    -1  
$EndComp
$Comp
L VDD #PWR08
U 1 1 5765ED79
P 10600 700
F 0 "#PWR08" H 10600 800 30  0001 C CNN
F 1 "VDD" H 10600 810 30  0000 C CNN
F 2 "" H 10600 700 60  0000 C CNN
F 3 "" H 10600 700 60  0000 C CNN
	1    10600 700 
	1    0    0    -1  
$EndComp
Wire Wire Line
	10600 750  10600 700 
Wire Wire Line
	10600 950  10600 1000
Text GLabel 2800 3900 0    60   Input ~ 0
U1_SCL
Text GLabel 2800 3750 0    60   Input ~ 0
U1_SDA
$Comp
L R R2
U 1 1 5765F71A
P 2950 3500
F 0 "R2" V 3030 3500 40  0000 C CNN
F 1 "2k" V 2957 3501 40  0000 C CNN
F 2 "~" V 2880 3500 30  0000 C CNN
F 3 "~" H 2950 3500 30  0000 C CNN
	1    2950 3500
	1    0    0    -1  
$EndComp
$Comp
L R R3
U 1 1 5765F729
P 3250 3650
F 0 "R3" V 3330 3650 40  0000 C CNN
F 1 "2k" V 3257 3651 40  0000 C CNN
F 2 "~" V 3180 3650 30  0000 C CNN
F 3 "~" H 3250 3650 30  0000 C CNN
	1    3250 3650
	1    0    0    -1  
$EndComp
$Comp
L VDD #PWR09
U 1 1 5765F736
P 3050 3200
F 0 "#PWR09" H 3050 3300 30  0001 C CNN
F 1 "VDD" H 3050 3310 30  0000 C CNN
F 2 "" H 3050 3200 60  0000 C CNN
F 3 "" H 3050 3200 60  0000 C CNN
	1    3050 3200
	1    0    0    -1  
$EndComp
Wire Wire Line
	2950 3250 2950 3200
Wire Wire Line
	2950 3200 3250 3200
Wire Wire Line
	3250 3200 3250 3400
Connection ~ 3050 3200
Wire Wire Line
	5650 2350 5400 2350
Wire Wire Line
	5650 2200 5400 2200
Text GLabel 3400 3900 2    60   Input ~ 0
U2_SCL
Text GLabel 3400 3750 2    60   Input ~ 0
U2_SDA
Wire Wire Line
	2800 3750 3400 3750
Connection ~ 2950 3750
Wire Wire Line
	2800 3900 3400 3900
Connection ~ 3250 3900
Wire Wire Line
	3750 1750 3850 1750
Wire Wire Line
	3850 2800 3850 2750
Wire Wire Line
	3850 2750 5650 2750
Wire Wire Line
	10150 3700 10150 3750
Text GLabel 5700 2950 2    60   Input ~ 0
SENSOR_ON
Wire Wire Line
	5400 2800 5550 2800
Wire Wire Line
	5550 2800 5550 2950
Wire Wire Line
	5550 2950 5700 2950
Text GLabel 9400 2750 0    60   Input ~ 0
SENSOR_ON
$Comp
L BC237 Q1
U 1 1 5766D2C1
P 10200 2750
F 0 "Q1" H 10400 2650 50  0000 C CNN
F 1 "BC237" H 10450 2900 50  0000 C CNN
F 2 "TO92-EBC" H 10390 2750 30  0001 C CNN
F 3 "" H 10200 2750 60  0000 C CNN
	1    10200 2750
	1    0    0    -1  
$EndComp
$Comp
L GND #PWR010
U 1 1 5766D2E7
P 10300 3000
F 0 "#PWR010" H 10300 3000 30  0001 C CNN
F 1 "GND" H 10300 2930 30  0001 C CNN
F 2 "" H 10300 3000 60  0000 C CNN
F 3 "" H 10300 3000 60  0000 C CNN
	1    10300 3000
	1    0    0    -1  
$EndComp
$Comp
L VDD #PWR011
U 1 1 5766D2ED
P 10300 1950
F 0 "#PWR011" H 10300 2050 30  0001 C CNN
F 1 "VDD" H 10300 2060 30  0000 C CNN
F 2 "" H 10300 1950 60  0000 C CNN
F 3 "" H 10300 1950 60  0000 C CNN
	1    10300 1950
	1    0    0    -1  
$EndComp
$Comp
L R R5
U 1 1 5766D338
P 9700 2750
F 0 "R5" V 9780 2750 40  0000 C CNN
F 1 "10k" V 9707 2751 40  0000 C CNN
F 2 "~" V 9630 2750 30  0000 C CNN
F 3 "~" H 9700 2750 30  0000 C CNN
	1    9700 2750
	0    1    -1   0   
$EndComp
Wire Wire Line
	9400 2750 9450 2750
Wire Wire Line
	9950 2750 10000 2750
Wire Wire Line
	10300 2950 10300 3000
Wire Wire Line
	10300 2450 10300 2550
Wire Wire Line
	10300 2000 10300 1950
$Comp
L GND #PWR012
U 1 1 57670604
P 4650 1150
F 0 "#PWR012" H 4650 1150 30  0001 C CNN
F 1 "GND" H 4650 1080 30  0001 C CNN
F 2 "" H 4650 1150 60  0000 C CNN
F 3 "" H 4650 1150 60  0000 C CNN
	1    4650 1150
	1    0    0    -1  
$EndComp
Wire Wire Line
	4650 1100 4650 1150
Wire Wire Line
	10600 3100 10600 2000
Wire Wire Line
	10600 2000 10300 2000
Wire Wire Line
	10600 3400 10700 3400
Wire Wire Line
	10700 3400 10700 2450
Wire Wire Line
	10700 2450 10300 2450
Wire Wire Line
	3000 2100 2650 2100
$EndSCHEMATC
