EESchema Schematic File Version 2
LIBS:power
LIBS:device
LIBS:transistors
LIBS:conn
LIBS:linear
LIBS:regul
LIBS:74xx
LIBS:cmos4000
LIBS:adc-dac
LIBS:memory
LIBS:xilinx
LIBS:special
LIBS:microcontrollers
LIBS:dsp
LIBS:microchip
LIBS:analog_switches
LIBS:motorola
LIBS:texas
LIBS:intel
LIBS:audio
LIBS:interface
LIBS:digital-audio
LIBS:philips
LIBS:display
LIBS:cypress
LIBS:siliconi
LIBS:opto
LIBS:atmel
LIBS:contrib
LIBS:valves
LIBS:74xgxx
LIBS:ac-dc
LIBS:brooktre
LIBS:cmos_ieee
LIBS:dc-dc
LIBS:elec-unifil
LIBS:ftdi
LIBS:gennum
LIBS:graphic
LIBS:hc11
LIBS:logo
LIBS:microchip1
LIBS:microchip_pic10mcu
LIBS:microchip_pic12mcu
LIBS:microchip_pic16mcu
LIBS:msp430
LIBS:nxp_armmcu
LIBS:powerint
LIBS:pspice
LIBS:references
LIBS:relays
LIBS:rfcom
LIBS:sensors
LIBS:stm8
LIBS:stm32
LIBS:supertex
LIBS:transf
LIBS:ttl_ieee
LIBS:video
LIBS:ucode_1-cache
EELAYER 27 0
EELAYER END
$Descr A4 11693 8268
encoding utf-8
Sheet 4 6
Title ""
Date "25 jun 2016"
Rev ""
Comp ""
Comment1 ""
Comment2 ""
Comment3 ""
Comment4 ""
$EndDescr
$Comp
L LP5910 LP1
U 1 1 5767319C
P 5000 2900
AR Path="/57670A5A/5767319C" Ref="LP1"  Part="1" 
AR Path="/57674BA4/5767319C" Ref="LP2"  Part="1" 
AR Path="/5767A2E8/5767319C" Ref="LP3"  Part="1" 
F 0 "LP2" H 5000 2500 60  0000 C CNN
F 1 "LP5910" H 5050 3300 60  0000 C CNN
F 2 "" H 5000 2900 60  0000 C CNN
F 3 "" H 5000 2900 60  0000 C CNN
	1    5000 2900
	1    0    0    -1  
$EndComp
$Comp
L C C4
U 1 1 576731AB
P 3950 2900
AR Path="/57670A5A/576731AB" Ref="C4"  Part="1" 
AR Path="/57674BA4/576731AB" Ref="C6"  Part="1" 
AR Path="/5767A2E8/576731AB" Ref="C10"  Part="1" 
F 0 "C6" H 3950 3000 40  0000 L CNN
F 1 "1 uF" H 3956 2815 40  0000 L CNN
F 2 "~" H 3988 2750 30  0000 C CNN
F 3 "~" H 3950 2900 60  0000 C CNN
	1    3950 2900
	1    0    0    -1  
$EndComp
$Comp
L C C5
U 1 1 576731BA
P 6050 2900
AR Path="/57670A5A/576731BA" Ref="C5"  Part="1" 
AR Path="/57674BA4/576731BA" Ref="C7"  Part="1" 
AR Path="/5767A2E8/576731BA" Ref="C11"  Part="1" 
F 0 "C7" H 6050 3000 40  0000 L CNN
F 1 "1 uF" H 6056 2815 40  0000 L CNN
F 2 "~" H 6088 2750 30  0000 C CNN
F 3 "~" H 6050 2900 60  0000 C CNN
	1    6050 2900
	1    0    0    -1  
$EndComp
$Comp
L R R15
U 1 1 576731C9
P 6450 2700
AR Path="/57670A5A/576731C9" Ref="R15"  Part="1" 
AR Path="/57674BA4/576731C9" Ref="R16"  Part="1" 
AR Path="/5767A2E8/576731C9" Ref="R17"  Part="1" 
F 0 "R16" V 6530 2700 40  0000 C CNN
F 1 "0R" V 6457 2701 40  0000 C CNN
F 2 "~" V 6380 2700 30  0000 C CNN
F 3 "~" H 6450 2700 30  0000 C CNN
	1    6450 2700
	0    -1   -1   0   
$EndComp
$Comp
L GND #PWR021
U 1 1 5767332A
P 5550 2950
AR Path="/57670A5A/5767332A" Ref="#PWR021"  Part="1" 
AR Path="/57674BA4/5767332A" Ref="#PWR20"  Part="1" 
AR Path="/5767A2E8/5767332A" Ref="#PWR29"  Part="1" 
F 0 "#PWR20" H 5550 2950 30  0001 C CNN
F 1 "GND" H 5550 2880 30  0001 C CNN
F 2 "" H 5550 2950 60  0000 C CNN
F 3 "" H 5550 2950 60  0000 C CNN
	1    5550 2950
	1    0    0    -1  
$EndComp
Wire Wire Line
	5550 2900 5550 2950
$Comp
L GND #PWR022
U 1 1 5767333A
P 6050 3150
AR Path="/57670A5A/5767333A" Ref="#PWR022"  Part="1" 
AR Path="/57674BA4/5767333A" Ref="#PWR22"  Part="1" 
AR Path="/5767A2E8/5767333A" Ref="#PWR31"  Part="1" 
F 0 "#PWR22" H 6050 3150 30  0001 C CNN
F 1 "GND" H 6050 3080 30  0001 C CNN
F 2 "" H 6050 3150 60  0000 C CNN
F 3 "" H 6050 3150 60  0000 C CNN
	1    6050 3150
	1    0    0    -1  
$EndComp
$Comp
L GND #PWR023
U 1 1 57673347
P 3950 3150
AR Path="/57670A5A/57673347" Ref="#PWR023"  Part="1" 
AR Path="/57674BA4/57673347" Ref="#PWR18"  Part="1" 
AR Path="/5767A2E8/57673347" Ref="#PWR27"  Part="1" 
F 0 "#PWR18" H 3950 3150 30  0001 C CNN
F 1 "GND" H 3950 3080 30  0001 C CNN
F 2 "" H 3950 3150 60  0000 C CNN
F 3 "" H 3950 3150 60  0000 C CNN
	1    3950 3150
	1    0    0    -1  
$EndComp
Text HLabel 6250 2400 2    60   Input ~ 0
VIN
Text HLabel 3900 2450 0    60   Input ~ 0
VOUT
$Comp
L VDD #PWR024
U 1 1 576735AA
P 6800 2700
AR Path="/57670A5A/576735AA" Ref="#PWR024"  Part="1" 
AR Path="/57674BA4/576735AA" Ref="#PWR23"  Part="1" 
AR Path="/5767A2E8/576735AA" Ref="#PWR32"  Part="1" 
F 0 "#PWR23" H 6800 2800 30  0001 C CNN
F 1 "VDD" H 6800 2810 30  0000 C CNN
F 2 "" H 6800 2700 60  0000 C CNN
F 3 "" H 6800 2700 60  0000 C CNN
	1    6800 2700
	1    0    0    -1  
$EndComp
Wire Wire Line
	5550 2700 6200 2700
Connection ~ 6050 2700
Wire Wire Line
	6050 2700 6050 2400
Wire Wire Line
	6050 2400 6250 2400
Wire Wire Line
	6050 3100 6050 3150
Wire Wire Line
	3950 3100 3950 3150
Wire Wire Line
	3950 2700 4450 2700
$Comp
L VDD #PWR025
U 1 1 576735E3
P 5700 3100
AR Path="/57670A5A/576735E3" Ref="#PWR025"  Part="1" 
AR Path="/57674BA4/576735E3" Ref="#PWR21"  Part="1" 
AR Path="/5767A2E8/576735E3" Ref="#PWR30"  Part="1" 
F 0 "#PWR21" H 5700 3200 30  0001 C CNN
F 1 "VDD" H 5700 3210 30  0000 C CNN
F 2 "" H 5700 3100 60  0000 C CNN
F 3 "" H 5700 3100 60  0000 C CNN
	1    5700 3100
	0    1    1    0   
$EndComp
Wire Wire Line
	5550 3100 5700 3100
Wire Wire Line
	6700 2700 6800 2700
Wire Wire Line
	3900 2450 3950 2450
Wire Wire Line
	3950 2450 3950 2700
$Comp
L GND #PWR19
U 1 1 576949A9
P 4350 3150
AR Path="/57674BA4/576949A9" Ref="#PWR19"  Part="1" 
AR Path="/5767A2E8/576949A9" Ref="#PWR28"  Part="1" 
F 0 "#PWR19" H 4350 3150 30  0001 C CNN
F 1 "GND" H 4350 3080 30  0001 C CNN
F 2 "" H 4350 3150 60  0000 C CNN
F 3 "" H 4350 3150 60  0000 C CNN
	1    4350 3150
	1    0    0    -1  
$EndComp
Wire Wire Line
	4450 2900 4350 2900
Wire Wire Line
	4350 2900 4350 3150
Wire Wire Line
	4450 3100 4350 3100
Connection ~ 4350 3100
$EndSCHEMATC
