EESchema Schematic File Version 2
LIBS:power
LIBS:device
LIBS:transistors
LIBS:conn
LIBS:linear
LIBS:regul
LIBS:74xx
LIBS:cmos4000
LIBS:adc-dac
LIBS:memory
LIBS:xilinx
LIBS:special
LIBS:microcontrollers
LIBS:dsp
LIBS:microchip
LIBS:analog_switches
LIBS:motorola
LIBS:texas
LIBS:intel
LIBS:audio
LIBS:interface
LIBS:digital-audio
LIBS:philips
LIBS:display
LIBS:cypress
LIBS:siliconi
LIBS:opto
LIBS:atmel
LIBS:contrib
LIBS:valves
LIBS:74xgxx
LIBS:ac-dc
LIBS:brooktre
LIBS:cmos_ieee
LIBS:dc-dc
LIBS:elec-unifil
LIBS:ftdi
LIBS:gennum
LIBS:graphic
LIBS:hc11
LIBS:logo
LIBS:microchip1
LIBS:microchip_pic10mcu
LIBS:microchip_pic12mcu
LIBS:microchip_pic16mcu
LIBS:msp430
LIBS:nxp_armmcu
LIBS:powerint
LIBS:pspice
LIBS:references
LIBS:relays
LIBS:rfcom
LIBS:sensors
LIBS:stm8
LIBS:stm32
LIBS:supertex
LIBS:transf
LIBS:ttl_ieee
LIBS:video
LIBS:ucode_1-cache
EELAYER 27 0
EELAYER END
$Descr A4 11693 8268
encoding utf-8
Sheet 6 6
Title ""
Date "25 jun 2016"
Rev ""
Comp ""
Comment1 ""
Comment2 ""
Comment3 ""
Comment4 ""
$EndDescr
$Comp
L TPS61221 TPS1
U 1 1 57671CC9
P 4900 2300
AR Path="/57670A4C/57671CC9" Ref="TPS1"  Part="1" 
AR Path="/5767A2E4/57671CC9" Ref="TPS2"  Part="1" 
AR Path="/5768D20D/57671CC9" Ref="TPS3"  Part="1" 
F 0 "TPS3" H 4900 1900 60  0000 C CNN
F 1 "TPS61221" H 4900 2700 60  0000 C CNN
F 2 "" H 4900 2300 60  0000 C CNN
F 3 "" H 4900 2300 60  0000 C CNN
	1    4900 2300
	1    0    0    -1  
$EndComp
Wire Wire Line
	4350 2300 4350 2400
Wire Wire Line
	4350 2400 5450 2400
Wire Wire Line
	5450 2400 5450 2500
Wire Wire Line
	4350 2100 4350 2200
Wire Wire Line
	4350 2200 5500 2200
Wire Wire Line
	5450 2200 5450 2100
$Comp
L GND #PWR018
U 1 1 57671CF3
P 4350 2550
AR Path="/57670A4C/57671CF3" Ref="#PWR018"  Part="1" 
AR Path="/5767A2E4/57671CF3" Ref="#PWR25"  Part="1" 
AR Path="/5768D20D/57671CF3" Ref="#PWR35"  Part="1" 
F 0 "#PWR35" H 4350 2550 30  0001 C CNN
F 1 "GND" H 4350 2480 30  0001 C CNN
F 2 "" H 4350 2550 60  0000 C CNN
F 3 "" H 4350 2550 60  0000 C CNN
	1    4350 2550
	1    0    0    -1  
$EndComp
Wire Wire Line
	4350 2500 4350 2550
$Comp
L INDUCTOR L1
U 1 1 57671D16
P 5700 2000
AR Path="/57670A4C/57671D16" Ref="L1"  Part="1" 
AR Path="/5767A2E4/57671D16" Ref="L2"  Part="1" 
AR Path="/5768D20D/57671D16" Ref="L3"  Part="1" 
F 0 "L3" V 5650 2000 40  0000 C CNN
F 1 "4.7 uH" V 5800 2000 40  0000 C CNN
F 2 "~" H 5700 2000 60  0000 C CNN
F 3 "~" H 5700 2000 60  0000 C CNN
	1    5700 2000
	1    0    0    -1  
$EndComp
Wire Wire Line
	5450 2300 5700 2300
Wire Wire Line
	5700 1700 5500 1700
Wire Wire Line
	5500 1700 5500 2200
Connection ~ 5450 2200
$Comp
L C C2
U 1 1 57671D46
P 4050 2350
AR Path="/57670A4C/57671D46" Ref="C2"  Part="1" 
AR Path="/5767A2E4/57671D46" Ref="C8"  Part="1" 
AR Path="/5768D20D/57671D46" Ref="C12"  Part="1" 
F 0 "C12" H 4050 2450 40  0000 L CNN
F 1 "10 uf" H 4056 2265 40  0000 L CNN
F 2 "~" H 4088 2200 30  0000 C CNN
F 3 "~" H 4050 2350 60  0000 C CNN
	1    4050 2350
	1    0    0    -1  
$EndComp
$Comp
L C C3
U 1 1 57671D55
P 5850 2700
AR Path="/57670A4C/57671D55" Ref="C3"  Part="1" 
AR Path="/5767A2E4/57671D55" Ref="C9"  Part="1" 
AR Path="/5768D20D/57671D55" Ref="C13"  Part="1" 
F 0 "C13" H 5850 2800 40  0000 L CNN
F 1 "10 uF" H 5856 2615 40  0000 L CNN
F 2 "~" H 5888 2550 30  0000 C CNN
F 3 "~" H 5850 2700 60  0000 C CNN
	1    5850 2700
	1    0    0    -1  
$EndComp
Wire Wire Line
	3850 2150 4350 2150
Connection ~ 4350 2150
Wire Wire Line
	5450 2500 6150 2500
$Comp
L GND #PWR019
U 1 1 57671D90
P 4050 2600
AR Path="/57670A4C/57671D90" Ref="#PWR019"  Part="1" 
AR Path="/5767A2E4/57671D90" Ref="#PWR24"  Part="1" 
AR Path="/5768D20D/57671D90" Ref="#PWR34"  Part="1" 
F 0 "#PWR34" H 4050 2600 30  0001 C CNN
F 1 "GND" H 4050 2530 30  0001 C CNN
F 2 "" H 4050 2600 60  0000 C CNN
F 3 "" H 4050 2600 60  0000 C CNN
	1    4050 2600
	1    0    0    -1  
$EndComp
$Comp
L GND #PWR020
U 1 1 57671D96
P 5850 2950
AR Path="/57670A4C/57671D96" Ref="#PWR020"  Part="1" 
AR Path="/5767A2E4/57671D96" Ref="#PWR26"  Part="1" 
AR Path="/5768D20D/57671D96" Ref="#PWR36"  Part="1" 
F 0 "#PWR36" H 5850 2950 30  0001 C CNN
F 1 "GND" H 5850 2880 30  0001 C CNN
F 2 "" H 5850 2950 60  0000 C CNN
F 3 "" H 5850 2950 60  0000 C CNN
	1    5850 2950
	1    0    0    -1  
$EndComp
Wire Wire Line
	4050 2550 4050 2600
Wire Wire Line
	5850 2900 5850 2950
Text HLabel 3850 2150 0    60   Input ~ 0
VIN
Text HLabel 6150 2500 2    60   Input ~ 0
VOUT
Connection ~ 4050 2150
Connection ~ 5850 2500
$EndSCHEMATC
