EESchema Schematic File Version 2
LIBS:power
LIBS:device
LIBS:transistors
LIBS:conn
LIBS:linear
LIBS:regul
LIBS:74xx
LIBS:cmos4000
LIBS:adc-dac
LIBS:memory
LIBS:xilinx
LIBS:special
LIBS:microcontrollers
LIBS:dsp
LIBS:microchip
LIBS:analog_switches
LIBS:motorola
LIBS:texas
LIBS:intel
LIBS:audio
LIBS:interface
LIBS:digital-audio
LIBS:philips
LIBS:display
LIBS:cypress
LIBS:siliconi
LIBS:opto
LIBS:atmel
LIBS:contrib
LIBS:valves
LIBS:74xgxx
LIBS:ac-dc
LIBS:brooktre
LIBS:cmos_ieee
LIBS:dc-dc
LIBS:elec-unifil
LIBS:ftdi
LIBS:gennum
LIBS:graphic
LIBS:hc11
LIBS:logo
LIBS:microchip1
LIBS:microchip_pic10mcu
LIBS:microchip_pic12mcu
LIBS:microchip_pic16mcu
LIBS:msp430
LIBS:nxp_armmcu
LIBS:powerint
LIBS:pspice
LIBS:references
LIBS:relays
LIBS:rfcom
LIBS:sensors
LIBS:stm8
LIBS:stm32
LIBS:supertex
LIBS:transf
LIBS:ttl_ieee
LIBS:video
LIBS:ucode_1-cache
EELAYER 27 0
EELAYER END
$Descr A4 11693 8268
encoding utf-8
Sheet 1 6
Title ""
Date "12 aug 2016"
Rev ""
Comp ""
Comment1 ""
Comment2 ""
Comment3 ""
Comment4 ""
$EndDescr
$Comp
L PIC12C508A U1
U 1 1 5765E34F
P 1750 7000
F 0 "U1" H 1750 7700 60  0000 C CNN
F 1 "UCODE_I2C" H 1750 6350 60  0000 C CNN
F 2 "" H 1750 7000 60  0000 C CNN
F 3 "" H 1750 7000 60  0000 C CNN
	1    1750 7000
	1    0    0    -1  
$EndComp
$Comp
L GND #PWR5
U 1 1 5765E42E
P 2450 6550
F 0 "#PWR5" H 2450 6550 30  0001 C CNN
F 1 "GND" H 2450 6480 30  0001 C CNN
F 2 "" H 2450 6550 60  0000 C CNN
F 3 "" H 2450 6550 60  0000 C CNN
	1    2450 6550
	1    0    0    -1  
$EndComp
$Comp
L VDD #PWR1
U 1 1 5765E463
P 1000 7450
F 0 "#PWR1" H 1000 7550 30  0001 C CNN
F 1 "VDD" H 1000 7560 30  0000 C CNN
F 2 "" H 1000 7450 60  0000 C CNN
F 3 "" H 1000 7450 60  0000 C CNN
	1    1000 7450
	1    0    0    -1  
$EndComp
$Comp
L R A1
U 1 1 5765E4DF
P 600 6650
F 0 "A1" V 680 6650 40  0000 C CNN
F 1 "Antenna" V 607 6651 40  0000 C CNN
F 2 "~" V 530 6650 30  0000 C CNN
F 3 "~" H 600 6650 30  0000 C CNN
	1    600  6650
	-1   0    0    1   
$EndComp
Text GLabel 2800 7000 2    60   Input ~ 0
U1_SCL
Text GLabel 2800 7500 2    60   Input ~ 0
U1_SDA
Text GLabel 7100 3700 2    60   Input ~ 0
U2_SCL
Text GLabel 7100 3550 2    60   Input ~ 0
U2_SDA
$Comp
L CONN_4 S1
U 1 1 5765EB6E
P 11050 6550
F 0 "S1" V 11000 6550 50  0000 C CNN
F 1 "DHT22" V 11100 6550 50  0000 C CNN
F 2 "" H 11050 6550 60  0000 C CNN
F 3 "" H 11050 6550 60  0000 C CNN
	1    11050 6550
	1    0    0    -1  
$EndComp
$Comp
L VDD #PWR12
U 1 1 5765EBC7
P 10250 7050
F 0 "#PWR12" H 10250 7150 30  0001 C CNN
F 1 "VDD" H 10250 7160 30  0000 C CNN
F 2 "" H 10250 7050 60  0000 C CNN
F 3 "" H 10250 7050 60  0000 C CNN
	1    10250 7050
	1    0    0    1   
$EndComp
$Comp
L R R14
U 1 1 5765EC09
P 10250 6750
F 0 "R14" V 10330 6750 40  0000 C CNN
F 1 "2k" V 10257 6751 40  0000 C CNN
F 2 "~" V 10180 6750 30  0000 C CNN
F 3 "~" H 10250 6750 30  0000 C CNN
	1    10250 6750
	1    0    0    1   
$EndComp
Text GLabel 10000 6500 0    60   Input ~ 0
DATA_SENSOR
Text GLabel 4600 4500 0    60   Input ~ 0
DATA_SENSOR
$Comp
L CONN_2 B1
U 1 1 5765ED56
P 10800 950
F 0 "B1" V 10750 950 40  0000 C CNN
F 1 "BATTERY" V 10850 950 40  0000 C CNN
F 2 "" H 10800 950 60  0000 C CNN
F 3 "" H 10800 950 60  0000 C CNN
	1    10800 950 
	1    0    0    -1  
$EndComp
$Comp
L GND #PWR16
U 1 1 5765ED73
P 10450 1100
F 0 "#PWR16" H 10450 1100 30  0001 C CNN
F 1 "GND" H 10450 1030 30  0001 C CNN
F 2 "" H 10450 1100 60  0000 C CNN
F 3 "" H 10450 1100 60  0000 C CNN
	1    10450 1100
	1    0    0    -1  
$EndComp
$Comp
L VDD #PWR15
U 1 1 5765ED79
P 10450 800
F 0 "#PWR15" H 10450 900 30  0001 C CNN
F 1 "VDD" H 10450 910 30  0000 C CNN
F 2 "" H 10450 800 60  0000 C CNN
F 3 "" H 10450 800 60  0000 C CNN
	1    10450 800 
	1    0    0    -1  
$EndComp
Text GLabel 4050 7400 0    60   Input ~ 0
U1_SCL
Text GLabel 4050 7250 0    60   Input ~ 0
U1_SDA
Text GLabel 6050 7400 2    60   Input ~ 0
U2_SCL
Text GLabel 6050 7250 2    60   Input ~ 0
U2_SDA
Text GLabel 4600 4850 0    60   Input ~ 0
SENSOR_ON
Text GLabel 9500 6050 0    60   Input ~ 0
SENSOR_ON
$Comp
L BC237 Q1
U 1 1 5766D2C1
P 10300 6050
F 0 "Q1" H 10500 5950 50  0000 C CNN
F 1 "BC237" H 10550 6200 50  0000 C CNN
F 2 "TO92-EBC" H 10490 6050 30  0001 C CNN
F 3 "" H 10300 6050 60  0000 C CNN
	1    10300 6050
	1    0    0    -1  
$EndComp
$Comp
L GND #PWR14
U 1 1 5766D2E7
P 10400 6300
F 0 "#PWR14" H 10400 6300 30  0001 C CNN
F 1 "GND" H 10400 6230 30  0001 C CNN
F 2 "" H 10400 6300 60  0000 C CNN
F 3 "" H 10400 6300 60  0000 C CNN
	1    10400 6300
	1    0    0    -1  
$EndComp
$Comp
L R R13
U 1 1 5766D338
P 9800 6050
F 0 "R13" V 9880 6050 40  0000 C CNN
F 1 "10k" V 9807 6051 40  0000 C CNN
F 2 "~" V 9730 6050 30  0000 C CNN
F 3 "~" H 9800 6050 30  0000 C CNN
	1    9800 6050
	0    1    -1   0   
$EndComp
$Comp
L PIC16F505 U2
U 1 1 5767087D
P 6250 4000
F 0 "U2" H 6250 3350 60  0000 C CNN
F 1 "MSP430L092" H 6250 4650 60  0000 C CNN
F 2 "" H 6250 4000 60  0000 C CNN
F 3 "" H 6250 4000 60  0000 C CNN
	1    6250 4000
	1    0    0    -1  
$EndComp
$Sheet
S 10250 1500 650  300 
U 57674BA4
F0 "decreaser_1" 50
F1 "file57670A59.sch" 50
F2 "VIN" I L 10250 1650 60 
F3 "VOUT" I R 10900 1650 60 
$EndSheet
$Comp
L VDD #PWR17
U 1 1 57675684
P 11000 1650
F 0 "#PWR17" H 11000 1750 30  0001 C CNN
F 1 "VDD" H 11000 1760 30  0000 C CNN
F 2 "" H 11000 1650 60  0000 C CNN
F 3 "" H 11000 1650 60  0000 C CNN
	1    11000 1650
	1    0    0    -1  
$EndComp
$Comp
L VCC #PWR11
U 1 1 5767575F
P 10150 1650
F 0 "#PWR11" H 10150 1750 30  0001 C CNN
F 1 "VCC" H 10150 1750 30  0000 C CNN
F 2 "" H 10150 1650 60  0000 C CNN
F 3 "" H 10150 1650 60  0000 C CNN
	1    10150 1650
	1    0    0    -1  
$EndComp
$Comp
L VCC #PWR9
U 1 1 57678963
P 7050 4000
F 0 "#PWR9" H 7050 4100 30  0001 C CNN
F 1 "VCC" H 7050 4100 30  0000 C CNN
F 2 "" H 7050 4000 60  0000 C CNN
F 3 "" H 7050 4000 60  0000 C CNN
	1    7050 4000
	1    0    0    -1  
$EndComp
$Comp
L GND #PWR10
U 1 1 57678BA9
P 7050 4200
F 0 "#PWR10" H 7050 4200 30  0001 C CNN
F 1 "GND" H 7050 4130 30  0001 C CNN
F 2 "" H 7050 4200 60  0000 C CNN
F 3 "" H 7050 4200 60  0000 C CNN
	1    7050 4200
	1    0    0    -1  
$EndComp
$Sheet
S 4650 4750 650  200 
U 5767A2E4
F0 "increaser_2" 50
F1 "file57670A4B.sch" 50
F2 "VIN" I R 5300 4850 60 
F3 "VOUT" I L 4650 4850 60 
$EndSheet
$Sheet
S 4650 4400 650  200 
U 5767A2E8
F0 "decreaser_2" 50
F1 "file57670A59.sch" 50
F2 "VIN" I L 4650 4500 60 
F3 "VOUT" I R 5300 4500 60 
$EndSheet
$Sheet
S 4500 6950 1050 550 
U 5767C140
F0 "DUAL_CONV" 50
F1 "file5767C13F.sch" 50
F2 "SDA1" I R 5550 7250 60 
F3 "SCL1" I R 5550 7400 60 
F4 "SDA2" I L 4500 7250 60 
F5 "SCL2" I L 4500 7400 60 
F6 "VREF1" I R 5550 7050 60 
F7 "VREF2" I L 4500 7050 60 
$EndSheet
Text GLabel 5300 3550 0    60   Input ~ 0
PIN1-P2.0
Text GLabel 5300 3700 0    60   Input ~ 0
PIN2-P2.1
Text GLabel 5300 3850 0    60   Input ~ 0
PIN3-P2.2
Text GLabel 5300 4000 0    60   Input ~ 0
PIN4-P2.3
Text GLabel 7800 4450 2    60   Input ~ 0
V_BOOST
$Comp
L CONN_5X2 MICRO_STECKV1
U 1 1 57687706
P 2450 3550
F 0 "MICRO_STECKV1" H 2450 3850 60  0000 C CNN
F 1 "MICRO_STECKV" V 2450 3550 50  0000 C CNN
F 2 "" H 2450 3550 60  0000 C CNN
F 3 "" H 2450 3550 60  0000 C CNN
	1    2450 3550
	-1   0    0    1   
$EndComp
$Comp
L VCC #PWR3
U 1 1 57687E9D
P 1950 3750
F 0 "#PWR3" H 1950 3850 30  0001 C CNN
F 1 "VCC" H 1950 3850 30  0000 C CNN
F 2 "" H 1950 3750 60  0000 C CNN
F 3 "" H 1950 3750 60  0000 C CNN
	1    1950 3750
	0    -1   -1   0   
$EndComp
$Comp
L GND #PWR2
U 1 1 57687EA3
P 1950 3650
F 0 "#PWR2" H 1950 3650 30  0001 C CNN
F 1 "GND" H 1950 3580 30  0001 C CNN
F 2 "" H 1950 3650 60  0000 C CNN
F 3 "" H 1950 3650 60  0000 C CNN
	1    1950 3650
	0    1    1    0   
$EndComp
Text GLabel 1900 3350 0    60   Input ~ 0
PIN5
Text GLabel 1900 3500 0    60   Input ~ 0
THOLD
$Comp
L GND #PWR4
U 1 1 57688B47
P 2950 3350
F 0 "#PWR4" H 2950 3350 30  0001 C CNN
F 1 "GND" H 2950 3280 30  0001 C CNN
F 2 "" H 2950 3350 60  0000 C CNN
F 3 "" H 2950 3350 60  0000 C CNN
	1    2950 3350
	0    -1   -1   0   
$EndComp
$Comp
L R R1
U 1 1 57688E34
P 3900 3700
F 0 "R1" V 3980 3700 40  0000 C CNN
F 1 "10K" V 3907 3701 40  0000 C CNN
F 2 "~" V 3830 3700 30  0000 C CNN
F 3 "~" H 3900 3700 30  0000 C CNN
	1    3900 3700
	-1   0    0    1   
$EndComp
Text GLabel 4650 1350 0    60   Input ~ 0
PIN1
Text GLabel 8750 2350 2    60   Input ~ 0
PIN2
Text GLabel 8750 2050 2    60   Input ~ 0
PIN3
Text GLabel 4650 1650 0    60   Input ~ 0
PIN4
$Comp
L PIC12C509A MEM1
U 1 1 5768A001
P 6750 1850
F 0 "MEM1" H 6700 1200 60  0000 C CNN
F 1 "M955512" H 6750 2600 60  0000 C CNN
F 2 "~" H 6750 1850 60  0000 C CNN
F 3 "~" H 6750 1850 60  0000 C CNN
	1    6750 1850
	1    0    0    -1  
$EndComp
$Comp
L R R5
U 1 1 5768B08B
P 5600 1050
F 0 "R5" V 5680 1050 40  0000 C CNN
F 1 "10K" V 5607 1051 40  0000 C CNN
F 2 "~" V 5530 1050 30  0000 C CNN
F 3 "~" H 5600 1050 30  0000 C CNN
	1    5600 1050
	1    0    0    -1  
$EndComp
$Comp
L R R7
U 1 1 5768B098
P 5800 1100
F 0 "R7" V 5880 1100 40  0000 C CNN
F 1 "10K" V 5807 1101 40  0000 C CNN
F 2 "~" V 5730 1100 30  0000 C CNN
F 3 "~" H 5800 1100 30  0000 C CNN
	1    5800 1100
	1    0    0    -1  
$EndComp
$Comp
L R R9
U 1 1 5768B0C2
P 7850 1350
F 0 "R9" V 7930 1350 40  0000 C CNN
F 1 "10K" V 7857 1351 40  0000 C CNN
F 2 "~" V 7780 1350 30  0000 C CNN
F 3 "~" H 7850 1350 30  0000 C CNN
	1    7850 1350
	1    0    0    -1  
$EndComp
$Comp
L R R10
U 1 1 5768B0C8
P 8000 1350
F 0 "R10" V 8080 1350 40  0000 C CNN
F 1 "10K" V 8007 1351 40  0000 C CNN
F 2 "~" V 7930 1350 30  0000 C CNN
F 3 "~" H 8000 1350 30  0000 C CNN
	1    8000 1350
	1    0    0    -1  
$EndComp
$Comp
L R R11
U 1 1 5768B0CE
P 8350 2050
F 0 "R11" V 8430 2050 40  0000 C CNN
F 1 "2K7" V 8357 2051 40  0000 C CNN
F 2 "~" V 8280 2050 30  0000 C CNN
F 3 "~" H 8350 2050 30  0000 C CNN
	1    8350 2050
	0    -1   -1   0   
$EndComp
$Comp
L R R12
U 1 1 5768B0D4
P 8350 2350
F 0 "R12" V 8430 2350 40  0000 C CNN
F 1 "2K7" V 8357 2351 40  0000 C CNN
F 2 "~" V 8280 2350 30  0000 C CNN
F 3 "~" H 8350 2350 30  0000 C CNN
	1    8350 2350
	0    -1   -1   0   
$EndComp
$Comp
L R R3
U 1 1 5768B0F8
P 5200 1350
F 0 "R3" V 5280 1350 40  0000 C CNN
F 1 "2K7" V 5207 1351 40  0000 C CNN
F 2 "~" V 5130 1350 30  0000 C CNN
F 3 "~" H 5200 1350 30  0000 C CNN
	1    5200 1350
	0    -1   -1   0   
$EndComp
$Comp
L R R4
U 1 1 5768B0FE
P 5200 1650
F 0 "R4" V 5280 1650 40  0000 C CNN
F 1 "3.9K" V 5207 1651 40  0000 C CNN
F 2 "~" V 5130 1650 30  0000 C CNN
F 3 "~" H 5200 1650 30  0000 C CNN
	1    5200 1650
	0    -1   -1   0   
$EndComp
$Comp
L R R2
U 1 1 5768B122
P 4800 1900
F 0 "R2" V 4880 1900 40  0000 C CNN
F 1 "6.8K" V 4807 1901 40  0000 C CNN
F 2 "~" V 4730 1900 30  0000 C CNN
F 3 "~" H 4800 1900 30  0000 C CNN
	1    4800 1900
	1    0    0    -1  
$EndComp
Text GLabel 4650 1200 0    60   Input ~ 0
PIN1-P2.0
Text GLabel 8750 2500 2    60   Input ~ 0
PIN2-P2.1
Text GLabel 8750 1900 2    60   Input ~ 0
PIN3-P2.2
Text GLabel 4650 1800 0    60   Input ~ 0
PIN4-P2.3
$Sheet
S 7050 4350 650  200 
U 5768D20D
F0 "increaser_3" 50
F1 "file57670A4B.sch" 50
F2 "VIN" I L 7050 4450 60 
F3 "VOUT" I R 7700 4450 60 
$EndSheet
Text GLabel 8500 750  2    60   Input ~ 0
V_BOOST
$Comp
L C C1
U 1 1 57691182
P 6700 2750
F 0 "C1" H 6700 2850 40  0000 L CNN
F 1 "100nF" H 6706 2665 40  0000 L CNN
F 2 "~" H 6738 2600 30  0000 C CNN
F 3 "~" H 6700 2750 60  0000 C CNN
	1    6700 2750
	0    -1   -1   0   
$EndComp
Text GLabel 3250 3300 2    60   Input ~ 0
PIN1
Text GLabel 3250 3750 2    60   Input ~ 0
PIN4
Text GLabel 3250 3450 2    60   Input ~ 0
PIN2
Text GLabel 3250 3600 2    60   Input ~ 0
PIN3
$Comp
L GND #PWR8
U 1 1 5769355F
P 5850 2450
F 0 "#PWR8" H 5850 2450 30  0001 C CNN
F 1 "GND" H 5850 2380 30  0001 C CNN
F 2 "" H 5850 2450 60  0000 C CNN
F 3 "" H 5850 2450 60  0000 C CNN
	1    5850 2450
	1    0    0    -1  
$EndComp
$Comp
L R R6
U 1 1 57694185
P 5600 2050
F 0 "R6" V 5680 2050 40  0000 C CNN
F 1 "0" V 5607 2051 40  0000 C CNN
F 2 "~" V 5530 2050 30  0000 C CNN
F 3 "~" H 5600 2050 30  0000 C CNN
	1    5600 2050
	1    0    0    -1  
$EndComp
$Comp
L VDD #PWR6
U 1 1 5769B7A7
P 4250 6650
F 0 "#PWR6" H 4250 6750 30  0001 C CNN
F 1 "VDD" H 4250 6760 30  0000 C CNN
F 2 "" H 4250 6650 60  0000 C CNN
F 3 "" H 4250 6650 60  0000 C CNN
	1    4250 6650
	1    0    0    -1  
$EndComp
$Comp
L VCC #PWR7
U 1 1 5769BF0F
P 5800 6650
F 0 "#PWR7" H 5800 6750 30  0001 C CNN
F 1 "VCC" H 5800 6750 30  0000 C CNN
F 2 "" H 5800 6650 60  0000 C CNN
F 3 "" H 5800 6650 60  0000 C CNN
	1    5800 6650
	1    0    0    -1  
$EndComp
Text GLabel 8750 1650 2    60   Input ~ 0
THOLD
Wire Wire Line
	2450 6500 2450 6550
Wire Wire Line
	1000 7500 1000 7450
Wire Wire Line
	600  6400 850  6400
Wire Wire Line
	850  6400 850  6500
Wire Wire Line
	850  6500 1000 6500
Wire Wire Line
	600  6900 850  6900
Wire Wire Line
	850  6900 850  6800
Wire Wire Line
	850  6800 1000 6800
Wire Wire Line
	1000 7000 1000 7200
Wire Wire Line
	2800 7000 1000 7000
Wire Wire Line
	10000 6500 10700 6500
Connection ~ 10250 6500
Wire Wire Line
	10450 850  10450 800 
Wire Wire Line
	10450 1050 10450 1100
Wire Wire Line
	10250 7000 10250 7050
Wire Wire Line
	9500 6050 9550 6050
Wire Wire Line
	10050 6050 10100 6050
Wire Wire Line
	10400 6250 10400 6300
Wire Wire Line
	10700 6400 10700 5600
Wire Wire Line
	10700 5600 10400 5600
Wire Wire Line
	10700 6700 10750 6700
Wire Wire Line
	10750 6700 10750 5850
Wire Wire Line
	10750 5850 10400 5850
Wire Wire Line
	10900 1650 11000 1650
Wire Wire Line
	10250 1650 10150 1650
Wire Wire Line
	2800 7500 2450 7500
Wire Wire Line
	6950 4150 7050 4150
Wire Wire Line
	7050 4150 7050 4200
Wire Wire Line
	6950 4000 7050 4000
Wire Wire Line
	7100 3550 6950 3550
Wire Wire Line
	7100 3700 6950 3700
Wire Wire Line
	4600 4500 4650 4500
Wire Wire Line
	4600 4850 4650 4850
Wire Wire Line
	5300 4500 5400 4500
Wire Wire Line
	5400 4500 5400 4300
Wire Wire Line
	5400 4300 5500 4300
Wire Wire Line
	5500 4450 5450 4450
Wire Wire Line
	5450 4450 5450 4850
Wire Wire Line
	5450 4850 5300 4850
Wire Wire Line
	5300 3550 5500 3550
Wire Wire Line
	5300 3700 5500 3700
Wire Wire Line
	5300 3850 5500 3850
Wire Wire Line
	5300 4000 5500 4000
Wire Wire Line
	1950 3650 2050 3650
Wire Wire Line
	1950 3750 2050 3750
Wire Wire Line
	1900 3350 2050 3350
Wire Wire Line
	1900 3500 1950 3500
Wire Wire Line
	1950 3500 1950 3450
Wire Wire Line
	1950 3450 2050 3450
Wire Wire Line
	2850 3350 2950 3350
Wire Wire Line
	2850 3650 3250 3650
Wire Wire Line
	3250 3650 3250 3600
Wire Wire Line
	2850 3550 3200 3550
Wire Wire Line
	3200 3550 3200 3450
Wire Wire Line
	3200 3450 3250 3450
Wire Wire Line
	2850 3450 3150 3450
Wire Wire Line
	3150 3450 3150 3300
Wire Wire Line
	3150 3300 3250 3300
Wire Wire Line
	3900 3950 3750 3950
Wire Wire Line
	3750 3950 3750 3750
Wire Wire Line
	3900 3450 3750 3450
Wire Wire Line
	3750 3450 3750 3600
Wire Wire Line
	6950 4450 7050 4450
Wire Wire Line
	7700 4450 7800 4450
Wire Wire Line
	3750 3750 2850 3750
Wire Wire Line
	3750 3600 3250 3600
Wire Wire Line
	8500 750  5600 750 
Wire Wire Line
	5600 750  5600 800 
Wire Wire Line
	7000 1350 7550 1350
Wire Wire Line
	7550 1350 7550 750 
Connection ~ 7550 750 
Wire Wire Line
	7450 2050 8100 2050
Wire Wire Line
	7450 2350 8100 2350
Wire Wire Line
	5450 1350 6000 1350
Connection ~ 5800 1350
Wire Wire Line
	5800 850  5800 750 
Connection ~ 5800 750 
Wire Wire Line
	5450 1650 6000 1650
Wire Wire Line
	6500 2750 6000 2750
Wire Wire Line
	6000 2750 6000 2350
Wire Wire Line
	6900 2750 7000 2750
Wire Wire Line
	7000 2750 7000 1350
Connection ~ 7450 1350
Wire Wire Line
	4650 1650 4950 1650
Connection ~ 4800 1650
Wire Wire Line
	6000 2350 4800 2350
Wire Wire Line
	5850 2350 5850 2450
Wire Wire Line
	4800 2350 4800 2150
Connection ~ 5850 2350
Wire Wire Line
	4650 1350 4950 1350
Wire Wire Line
	5600 2300 5600 2350
Connection ~ 5600 2350
Wire Wire Line
	6000 1800 6000 2050
Wire Wire Line
	5600 1800 6000 1800
Wire Wire Line
	5600 1800 5600 1300
Wire Wire Line
	4650 1800 4650 1650
Wire Wire Line
	4650 1200 4650 1350
Wire Wire Line
	8600 2050 8750 2050
Wire Wire Line
	8750 2050 8750 1900
Wire Wire Line
	8600 2350 8750 2350
Wire Wire Line
	8750 2350 8750 2500
Wire Wire Line
	4500 7050 4400 7050
Wire Wire Line
	4050 7250 4500 7250
Wire Wire Line
	4050 7400 4500 7400
Wire Wire Line
	5550 7050 5650 7050
Wire Wire Line
	5550 7250 6050 7250
Wire Wire Line
	5550 7400 6050 7400
$Comp
L R R8
U 1 1 5768B0BC
P 7700 1350
F 0 "R8" V 7780 1350 40  0000 C CNN
F 1 "10K" V 7707 1351 40  0000 C CNN
F 2 "~" V 7630 1350 30  0000 C CNN
F 3 "~" H 7700 1350 30  0000 C CNN
	1    7700 1350
	1    0    0    -1  
$EndComp
Wire Wire Line
	7450 1650 8750 1650
Wire Wire Line
	7700 1650 7700 1600
Connection ~ 7700 1650
Wire Wire Line
	7850 1600 7850 2050
Connection ~ 7850 2050
Wire Wire Line
	8000 1600 8000 2350
Connection ~ 8000 2350
Wire Wire Line
	7700 1100 7700 750 
Connection ~ 7700 750 
Wire Wire Line
	7850 1100 7850 750 
Connection ~ 7850 750 
Wire Wire Line
	8000 1100 8000 750 
Connection ~ 8000 750 
$Comp
L VDD #PWR13
U 1 1 5766D2ED
P 10400 5600
F 0 "#PWR13" H 10400 5700 30  0001 C CNN
F 1 "VDD" H 10400 5710 30  0000 C CNN
F 2 "" H 10400 5600 60  0000 C CNN
F 3 "" H 10400 5600 60  0000 C CNN
	1    10400 5600
	1    0    0    -1  
$EndComp
$Comp
L R R20
U 1 1 57695A8C
P 5800 6950
F 0 "R20" V 5880 6950 40  0000 C CNN
F 1 "2k" V 5807 6951 40  0000 C CNN
F 2 "~" V 5730 6950 30  0000 C CNN
F 3 "~" H 5800 6950 30  0000 C CNN
	1    5800 6950
	1    0    0    -1  
$EndComp
$Comp
L R R21
U 1 1 57695C18
P 5950 6950
F 0 "R21" V 6030 6950 40  0000 C CNN
F 1 "2k" V 5957 6951 40  0000 C CNN
F 2 "~" V 5880 6950 30  0000 C CNN
F 3 "~" H 5950 6950 30  0000 C CNN
	1    5950 6950
	1    0    0    -1  
$EndComp
$Comp
L R R15
U 1 1 57695F9A
P 4100 6950
F 0 "R15" V 4180 6950 40  0000 C CNN
F 1 "2k" V 4107 6951 40  0000 C CNN
F 2 "~" V 4030 6950 30  0000 C CNN
F 3 "~" H 4100 6950 30  0000 C CNN
	1    4100 6950
	1    0    0    -1  
$EndComp
$Comp
L R R19
U 1 1 57695FA0
P 4250 6950
F 0 "R19" V 4330 6950 40  0000 C CNN
F 1 "2k" V 4257 6951 40  0000 C CNN
F 2 "~" V 4180 6950 30  0000 C CNN
F 3 "~" H 4250 6950 30  0000 C CNN
	1    4250 6950
	1    0    0    -1  
$EndComp
Wire Wire Line
	4100 7200 4100 7250
Connection ~ 4100 7250
Wire Wire Line
	4250 7200 4250 7400
Connection ~ 4250 7400
Wire Wire Line
	4100 6700 4400 6700
Wire Wire Line
	4250 6700 4250 6650
Wire Wire Line
	4400 6700 4400 7050
Connection ~ 4250 6700
Wire Wire Line
	5800 7200 5800 7400
Connection ~ 5800 7400
Wire Wire Line
	5950 7200 5950 7250
Connection ~ 5950 7250
Wire Wire Line
	5650 7050 5650 6700
Wire Wire Line
	5650 6700 5950 6700
Connection ~ 5800 6700
Wire Wire Line
	5800 6650 5800 6700
$Comp
L C C2
U 1 1 576F0046
P 10050 1000
F 0 "C2" H 10050 1100 40  0000 L CNN
F 1 "10 uF" H 10056 915 40  0000 L CNN
F 2 "~" H 10088 850 30  0000 C CNN
F 3 "~" H 10050 1000 60  0000 C CNN
	1    10050 1000
	1    0    0    -1  
$EndComp
Wire Wire Line
	10050 800  10250 800 
Wire Wire Line
	10250 800  10250 850 
Wire Wire Line
	10250 850  10450 850 
Wire Wire Line
	10050 1200 10250 1200
Wire Wire Line
	10250 1200 10250 1050
Wire Wire Line
	10250 1050 10450 1050
$EndSCHEMATC
