(module CR2450_HOLDER (layer F.Cu) (tedit 57B6B7C2)
  (fp_text reference B1 (at 0 -5) (layer F.SilkS)
    (effects (font (size 1 1) (thickness 0.15)))
  )
  (fp_text value BATTERY (at 0 4) (layer F.SilkS)
    (effects (font (size 1 1) (thickness 0.15)))
  )
  (fp_line (start -7 12) (end 7 12) (layer F.SilkS) (width 0.05))
  (fp_line (start -7 -12) (end 7 -12) (layer F.SilkS) (width 0.05))
  (fp_line (start 19 4) (end 19 -4) (layer F.SilkS) (width 0.05))
  (fp_line (start 19 -4) (end 13.5 -4) (layer F.SilkS) (width 0.05))
  (fp_line (start 13.5 -4) (end 13.5 3.5) (layer F.SilkS) (width 0.05))
  (fp_line (start 13.5 3.5) (end 13.5 4) (layer F.SilkS) (width 0.05))
  (fp_line (start 13.5 4) (end 19 4) (layer F.SilkS) (width 0.05))
  (fp_line (start -19 -4) (end -19 4) (layer F.SilkS) (width 0.05))
  (fp_line (start -19 4) (end -13.5 4) (layer F.SilkS) (width 0.05))
  (fp_line (start -13.5 4) (end -13.5 -4) (layer F.SilkS) (width 0.05))
  (fp_line (start -13.5 -4) (end -19 -4) (layer F.SilkS) (width 0.05))
  (fp_circle (center 0 0) (end 0.5 -14) (layer F.SilkS) (width 0.05))
  (fp_circle (center 0 0) (end 12.25 -0.25) (layer F.SilkS) (width 0.05))
  (pad 1 smd rect (at -20.5 0.25) (size 2.55 5.1) (layers F.Cu F.Paste F.Mask))
  (pad 2 smd rect (at 20.5 0.25) (size 2.55 5.1) (layers F.Cu F.Paste F.Mask))
)
