EESchema Schematic File Version 2
LIBS:power
LIBS:device
LIBS:transistors
LIBS:conn
LIBS:linear
LIBS:regul
LIBS:74xx
LIBS:cmos4000
LIBS:adc-dac
LIBS:memory
LIBS:xilinx
LIBS:microcontrollers
LIBS:dsp
LIBS:microchip
LIBS:analog_switches
LIBS:motorola
LIBS:texas
LIBS:intel
LIBS:audio
LIBS:interface
LIBS:digital-audio
LIBS:philips
LIBS:display
LIBS:cypress
LIBS:siliconi
LIBS:opto
LIBS:atmel
LIBS:contrib
LIBS:valves
LIBS:74xgxx
LIBS:ac-dc
LIBS:brooktre
LIBS:cmos_ieee
LIBS:dc-dc
LIBS:elec-unifil
LIBS:ftdi
LIBS:gennum
LIBS:graphic
LIBS:hc11
LIBS:logo
LIBS:microchip_pic10mcu
LIBS:microchip_pic12mcu
LIBS:microchip_pic16mcu
LIBS:msp430
LIBS:nxp_armmcu
LIBS:powerint
LIBS:pspice
LIBS:references
LIBS:relays
LIBS:rfcom
LIBS:sensors
LIBS:stm8
LIBS:stm32
LIBS:supertex
LIBS:transf
LIBS:ttl_ieee
LIBS:video
LIBS:smarttags
LIBS:smarttag-cache
EELAYER 25 0
EELAYER END
$Descr USLetter 8500 11000 portrait
encoding utf-8
Sheet 1 1
Title "SmartTag_QG8_v2"
Date "19 aug 2016"
Rev ""
Comp ""
Comment1 ""
Comment2 ""
Comment3 ""
Comment4 ""
$EndDescr
Text GLabel 3200 1500 2    60   Input ~ 0
U1_SCL
Text GLabel 3200 1200 2    60   Input ~ 0
U1_SDA
Text GLabel 6150 3050 2    60   Input ~ 0
U2_SCL
Text GLabel 6150 2850 2    60   Input ~ 0
U2_SDA
$Comp
L CONN_4 S1
U 1 1 5765EB6E
P 6250 4750
F 0 "S1" V 6200 4750 50  0000 C CNN
F 1 "DHT22" V 6300 4750 50  0000 C CNN
F 2 "smarttags:DTH22" H 6250 4750 60  0001 C CNN
F 3 "" H 6250 4750 60  0000 C CNN
	1    6250 4750
	1    0    0    -1  
$EndComp
$Comp
L R R5
U 1 1 5765EC09
P 5450 4950
F 0 "R5" V 5530 4950 40  0000 C CNN
F 1 "2k" V 5457 4951 40  0000 C CNN
F 2 "" V 5380 4950 30  0001 C CNN
F 3 "~" H 5450 4950 30  0000 C CNN
	1    5450 4950
	1    0    0    1   
$EndComp
Text GLabel 5200 4700 0    60   Input ~ 0
DATA_SENSOR
$Comp
L CONN_2 B1
U 1 1 5765ED56
P 1450 3800
F 0 "B1" V 1400 3800 40  0000 C CNN
F 1 "BATTERY" V 1500 3800 40  0000 C CNN
F 2 "BATT:CR2450_HOLDER" H 1450 3800 60  0001 C CNN
F 3 "" H 1450 3800 60  0000 C CNN
	1    1450 3800
	-1   0    0    -1  
$EndComp
Text GLabel 5800 4500 0    60   Input ~ 0
SENSOR_ON
Wire Wire Line
	5200 4700 5900 4700
$Comp
L C C1
U 1 1 576F0046
P 3700 2950
F 0 "C1" H 3700 3050 40  0000 L CNN
F 1 "10 uF" H 3706 2865 40  0000 L CNN
F 2 "" H 3738 2800 30  0001 C CNN
F 3 "~" H 3700 2950 60  0000 C CNN
	1    3700 2950
	1    0    0    -1  
$EndComp
Text GLabel 6150 3650 2    60   Input ~ 0
SENSOR_ON_MCU
Text GLabel 6150 3850 2    60   Input ~ 0
DATA_SENSOR
$Comp
L R R4
U 1 1 57B6AEC3
P 3900 3900
F 0 "R4" V 3980 3900 40  0000 C CNN
F 1 "330" V 3907 3901 40  0000 C CNN
F 2 "" V 3830 3900 30  0001 C CNN
F 3 "~" H 3900 3900 30  0000 C CNN
	1    3900 3900
	0    1    -1   0   
$EndComp
$Comp
L R R3
U 1 1 57B6AF05
P 3900 3600
F 0 "R3" V 3980 3600 40  0000 C CNN
F 1 "330" V 3907 3601 40  0000 C CNN
F 2 "" V 3830 3600 30  0001 C CNN
F 3 "~" H 3900 3600 30  0000 C CNN
	1    3900 3600
	0    1    -1   0   
$EndComp
$Comp
L LED D2
U 1 1 57B6AF0D
P 3550 3900
F 0 "D2" H 3550 4000 50  0000 C CNN
F 1 "LED" H 3550 3800 50  0000 C CNN
F 2 "" H 3550 3900 60  0001 C CNN
F 3 "~" H 3550 3900 60  0000 C CNN
	1    3550 3900
	1    0    0    -1  
$EndComp
$Comp
L LED D1
U 1 1 57B6AF2E
P 3550 3600
F 0 "D1" H 3550 3700 50  0000 C CNN
F 1 "LED" H 3550 3500 50  0000 C CNN
F 2 "" H 3550 3600 60  0001 C CNN
F 3 "~" H 3550 3600 60  0000 C CNN
	1    3550 3600
	1    0    0    -1  
$EndComp
$Comp
L CONN_3X2 Prog_QG8
U 1 1 57B6A0D1
P 2200 2700
F 0 "Prog_QG8" H 2200 2500 50  0000 C CNN
F 1 "CONN_3X2" V 2200 2750 40  0000 C CNN
F 2 "smarttags:CONN_3x2" H 2200 2700 60  0001 C CNN
F 3 "" H 2200 2700 60  0000 C CNN
	1    2200 2700
	1    0    0    1   
$EndComp
Wire Wire Line
	2600 2650 2600 2600
Wire Wire Line
	5800 4500 5900 4500
Wire Wire Line
	5900 4500 5900 4600
Wire Wire Line
	5900 4900 5900 4950
Wire Wire Line
	3350 3600 3350 3900
Wire Wire Line
	3200 3750 3350 3750
Connection ~ 3350 3750
Text GLabel 4000 2650 0    60   Input ~ 0
P_Prog
Text GLabel 1700 2850 0    60   Input ~ 0
P_Prog
Wire Wire Line
	1700 2850 1800 2850
$Comp
L SW_PUSH SW1
U 1 1 57B6D855
P 2100 3600
F 0 "SW1" H 2250 3710 50  0000 C CNN
F 1 "SW_PUSH" H 2100 3520 50  0000 C CNN
F 2 "smarttags:SWITCH_SMD_3x2.5" H 2100 3600 60  0001 C CNN
F 3 "~" H 2100 3600 60  0000 C CNN
	1    2100 3600
	-1   0    0    -1  
$EndComp
Wire Wire Line
	1800 3700 1800 3600
Wire Wire Line
	1800 4000 1800 3900
Wire Wire Line
	2500 4050 2500 4000
$Comp
L R R1
U 1 1 57B6DE7E
P 4950 1300
F 0 "R1" V 5030 1300 40  0000 C CNN
F 1 "2k" V 4957 1301 40  0000 C CNN
F 2 "" V 4880 1300 30  0001 C CNN
F 3 "~" H 4950 1300 30  0000 C CNN
	1    4950 1300
	1    0    0    1   
$EndComp
Text GLabel 4800 1700 0    60   Input ~ 0
U1_SCL
Text GLabel 4800 1550 0    60   Input ~ 0
U1_SDA
Text GLabel 5300 1550 2    60   Input ~ 0
U2_SDA
Text GLabel 5300 1700 2    60   Input ~ 0
U2_SCL
$Comp
L R R2
U 1 1 57B6DFFB
P 5100 1450
F 0 "R2" V 5180 1450 40  0000 C CNN
F 1 "2k" V 5107 1451 40  0000 C CNN
F 2 "" V 5030 1450 30  0001 C CNN
F 3 "~" H 5100 1450 30  0000 C CNN
	1    5100 1450
	1    0    0    1   
$EndComp
Wire Wire Line
	4800 1550 5300 1550
Wire Wire Line
	4800 1700 5300 1700
Wire Wire Line
	2500 4000 1800 4000
Wire Wire Line
	2400 3600 2500 3600
$Comp
L R R6
U 1 1 57B6CCC7
P 6400 3450
F 0 "R6" V 6300 3450 40  0000 C CNN
F 1 "2k" V 6407 3451 40  0000 C CNN
F 2 "" V 6330 3450 30  0001 C CNN
F 3 "~" H 6400 3450 30  0000 C CNN
	1    6400 3450
	0    -1   1    0   
$EndComp
$Comp
L SL3S4011_4021 U2
U 1 1 5A3A965B
P 2500 1500
F 0 "U2" H 2500 2000 60  0000 C CNN
F 1 "SL3S4011_4021" H 2450 1000 60  0000 C CNN
F 2 "smarttags:UCODE_I2C" H 2550 1350 60  0001 C CNN
F 3 "" H 2550 1350 60  0001 C CNN
	1    2500 1500
	1    0    0    -1  
$EndComp
$Comp
L MC9S08QG8 U1
U 1 1 5A3AA51D
P 5100 3150
F 0 "U1" H 5100 4050 60  0000 C CNN
F 1 "MC9S08QG8" H 5100 2250 60  0000 C CNN
F 2 "smarttags:TSSOP16" H 5500 3200 60  0001 C CNN
F 3 "" H 5500 3200 60  0001 C CNN
	1    5100 3150
	1    0    0    -1  
$EndComp
$Comp
L Antenna_UCODE A1
U 1 1 5A3AB56B
P 1450 1300
F 0 "A1" H 1450 1500 60  0000 C CNN
F 1 "Antenna_UCODE" H 1450 1100 60  0000 C CNN
F 2 "smarttags:Antenna_UCODE" H 1450 1300 60  0001 C CNN
F 3 "" H 1450 1300 60  0001 C CNN
	1    1450 1300
	0    -1   -1   0   
$EndComp
Wire Wire Line
	3200 1200 3050 1200
Wire Wire Line
	3200 1500 1900 1500
Wire Wire Line
	1900 1500 1900 1600
Wire Wire Line
	1450 800  1800 800 
Wire Wire Line
	1800 800  1800 1200
Wire Wire Line
	1800 1200 1900 1200
Wire Wire Line
	1450 1800 1800 1800
Wire Wire Line
	1800 1800 1800 1400
Wire Wire Line
	1800 1400 1900 1400
Wire Wire Line
	3350 3900 3400 3900
Wire Wire Line
	3350 3600 3400 3600
Wire Wire Line
	3700 3600 3750 3600
Wire Wire Line
	4050 3600 4100 3600
Wire Wire Line
	4100 3600 4100 3650
Wire Wire Line
	4100 3650 4150 3650
Wire Wire Line
	4050 3900 4100 3900
Wire Wire Line
	4100 3900 4100 3850
Wire Wire Line
	4100 3850 4150 3850
Wire Wire Line
	3900 3050 3900 3100
Wire Wire Line
	3900 3100 3700 3100
Wire Wire Line
	3700 2800 3900 2800
Wire Wire Line
	3900 2800 3900 2850
Wire Wire Line
	3900 2850 4150 2850
Connection ~ 4050 2850
Wire Wire Line
	3900 3050 4150 3050
Connection ~ 4050 3050
Wire Wire Line
	4000 2650 4150 2650
Wire Wire Line
	6150 3650 6050 3650
Wire Wire Line
	6150 3850 6050 3850
Wire Wire Line
	6250 3450 6050 3450
Wire Wire Line
	6550 3450 6600 3450
Wire Wire Line
	6150 3050 6050 3050
Wire Wire Line
	6150 2850 6050 2850
Wire Wire Line
	5100 1600 5100 1700
Connection ~ 5100 1700
Wire Wire Line
	4950 1450 4950 1550
Connection ~ 4950 1550
Wire Wire Line
	5450 4800 5450 4700
Connection ~ 5450 4700
Wire Wire Line
	3700 3900 3750 3900
Wire Wire Line
	2600 2850 2600 2900
$Comp
L TPS61221 TPS1
U 1 1 5A3ACDF1
P 2400 4850
F 0 "TPS1" H 2400 5250 60  0000 C CNN
F 1 "TPS61221" H 2400 4450 60  0000 C CNN
F 2 "smarttags:TPS61221" H 2400 4850 60  0001 C CNN
F 3 "" H 2400 4850 60  0000 C CNN
	1    2400 4850
	1    0    0    -1  
$EndComp
$Comp
L C C2
U 1 1 5A3ACFB5
P 1500 4850
F 0 "C2" H 1525 4950 50  0000 L CNN
F 1 "10 uF" H 1525 4750 50  0000 L CNN
F 2 "" H 1538 4700 50  0001 C CNN
F 3 "" H 1500 4850 50  0000 C CNN
	1    1500 4850
	1    0    0    -1  
$EndComp
$Comp
L L L1
U 1 1 5A3AD0BF
P 3200 4850
F 0 "L1" V 3150 4850 50  0000 C CNN
F 1 "4.7 uH" V 3300 4900 50  0000 C CNN
F 2 "smarttags:Inductor4_7uH" H 3200 4850 50  0001 C CNN
F 3 "" H 3200 4850 50  0000 C CNN
	1    3200 4850
	0    1    1    0   
$EndComp
$Comp
L GND #PWR01
U 1 1 5A3AD1EE
P 1500 5100
F 0 "#PWR01" H 1500 4850 50  0001 C CNN
F 1 "GND" H 1500 4950 50  0000 C CNN
F 2 "" H 1500 5100 50  0000 C CNN
F 3 "" H 1500 5100 50  0000 C CNN
	1    1500 5100
	1    0    0    -1  
$EndComp
$Comp
L GND #PWR02
U 1 1 5A3AD7EC
P 1850 5150
F 0 "#PWR02" H 1850 4900 50  0001 C CNN
F 1 "GND" H 1850 5000 50  0000 C CNN
F 2 "" H 1850 5150 50  0000 C CNN
F 3 "" H 1850 5150 50  0000 C CNN
	1    1850 5150
	1    0    0    -1  
$EndComp
$Comp
L GND #PWR03
U 1 1 5A3AD838
P 3100 5400
F 0 "#PWR03" H 3100 5150 50  0001 C CNN
F 1 "GND" H 3100 5250 50  0000 C CNN
F 2 "" H 3100 5400 50  0000 C CNN
F 3 "" H 3100 5400 50  0000 C CNN
	1    3100 5400
	1    0    0    -1  
$EndComp
$Comp
L C C3
U 1 1 5A3AD95A
P 3100 5200
F 0 "C3" H 3125 5300 50  0000 L CNN
F 1 "10 uF" H 3125 5100 50  0000 L CNN
F 2 "" H 3138 5050 50  0001 C CNN
F 3 "" H 3100 5200 50  0000 C CNN
	1    3100 5200
	1    0    0    -1  
$EndComp
$Comp
L GND #PWR04
U 1 1 5A3ADEAF
P 2500 4050
F 0 "#PWR04" H 2500 3800 50  0001 C CNN
F 1 "GND" H 2500 3900 50  0000 C CNN
F 2 "" H 2500 4050 50  0000 C CNN
F 3 "" H 2500 4050 50  0000 C CNN
	1    2500 4050
	1    0    0    -1  
$EndComp
$Comp
L GND #PWR05
U 1 1 5A3AE15B
P 2600 2900
F 0 "#PWR05" H 2600 2650 50  0001 C CNN
F 1 "GND" H 2600 2750 50  0000 C CNN
F 2 "" H 2600 2900 50  0000 C CNN
F 3 "" H 2600 2900 50  0000 C CNN
	1    2600 2900
	1    0    0    -1  
$EndComp
$Comp
L GND #PWR06
U 1 1 5A3AE1D2
P 3200 3750
F 0 "#PWR06" H 3200 3500 50  0001 C CNN
F 1 "GND" H 3200 3600 50  0000 C CNN
F 2 "" H 3200 3750 50  0000 C CNN
F 3 "" H 3200 3750 50  0000 C CNN
	1    3200 3750
	0    1    1    0   
$EndComp
$Comp
L GND #PWR07
U 1 1 5A3AE249
P 4050 3050
F 0 "#PWR07" H 4050 2800 50  0001 C CNN
F 1 "GND" H 4050 2900 50  0000 C CNN
F 2 "" H 4050 3050 50  0000 C CNN
F 3 "" H 4050 3050 50  0000 C CNN
	1    4050 3050
	1    0    0    -1  
$EndComp
$Comp
L GND #PWR08
U 1 1 5A3AE2FA
P 3050 1950
F 0 "#PWR08" H 3050 1700 50  0001 C CNN
F 1 "GND" H 3050 1800 50  0000 C CNN
F 2 "" H 3050 1950 50  0000 C CNN
F 3 "" H 3050 1950 50  0000 C CNN
	1    3050 1950
	1    0    0    -1  
$EndComp
$Comp
L GND #PWR09
U 1 1 5A3AE459
P 5900 4950
F 0 "#PWR09" H 5900 4700 50  0001 C CNN
F 1 "GND" H 5900 4800 50  0000 C CNN
F 2 "" H 5900 4950 50  0000 C CNN
F 3 "" H 5900 4950 50  0000 C CNN
	1    5900 4950
	1    0    0    -1  
$EndComp
$Comp
L VDD #PWR010
U 1 1 5A3AE4DA
P 2500 3600
F 0 "#PWR010" H 2500 3450 50  0001 C CNN
F 1 "VDD" H 2500 3750 50  0000 C CNN
F 2 "" H 2500 3600 50  0000 C CNN
F 3 "" H 2500 3600 50  0000 C CNN
	1    2500 3600
	1    0    0    -1  
$EndComp
$Comp
L VDD #PWR011
U 1 1 5A3AE765
P 2600 2600
F 0 "#PWR011" H 2600 2450 50  0001 C CNN
F 1 "VDD" H 2600 2750 50  0000 C CNN
F 2 "" H 2600 2600 50  0000 C CNN
F 3 "" H 2600 2600 50  0000 C CNN
	1    2600 2600
	1    0    0    -1  
$EndComp
$Comp
L VDD #PWR012
U 1 1 5A3AE7F0
P 4050 2850
F 0 "#PWR012" H 4050 2700 50  0001 C CNN
F 1 "VDD" H 4050 3000 50  0000 C CNN
F 2 "" H 4050 2850 50  0000 C CNN
F 3 "" H 4050 2850 50  0000 C CNN
	1    4050 2850
	1    0    0    -1  
$EndComp
$Comp
L VDD #PWR013
U 1 1 5A3AEACB
P 5050 1050
F 0 "#PWR013" H 5050 900 50  0001 C CNN
F 1 "VDD" H 5050 1200 50  0000 C CNN
F 2 "" H 5050 1050 50  0000 C CNN
F 3 "" H 5050 1050 50  0000 C CNN
	1    5050 1050
	1    0    0    -1  
$EndComp
$Comp
L VDD #PWR014
U 1 1 5A3AEC64
P 1900 1950
F 0 "#PWR014" H 1900 1800 50  0001 C CNN
F 1 "VDD" H 1900 2100 50  0000 C CNN
F 2 "" H 1900 1950 50  0000 C CNN
F 3 "" H 1900 1950 50  0000 C CNN
	1    1900 1950
	-1   0    0    1   
$EndComp
$Comp
L VDD #PWR015
U 1 1 5A3AEDC3
P 6600 3450
F 0 "#PWR015" H 6600 3300 50  0001 C CNN
F 1 "VDD" H 6600 3600 50  0000 C CNN
F 2 "" H 6600 3450 50  0000 C CNN
F 3 "" H 6600 3450 50  0000 C CNN
	1    6600 3450
	1    0    0    -1  
$EndComp
$Comp
L VDD #PWR016
U 1 1 5A3AEF21
P 1500 4600
F 0 "#PWR016" H 1500 4450 50  0001 C CNN
F 1 "VDD" H 1500 4750 50  0000 C CNN
F 2 "" H 1500 4600 50  0000 C CNN
F 3 "" H 1500 4600 50  0000 C CNN
	1    1500 4600
	1    0    0    -1  
$EndComp
Wire Wire Line
	1500 4700 1500 4600
Wire Wire Line
	1500 5100 1500 5000
Wire Wire Line
	1850 5050 1850 5150
Wire Wire Line
	1850 4650 1500 4650
Connection ~ 1500 4650
Wire Wire Line
	3350 4750 3350 4850
Wire Wire Line
	2950 4850 3050 4850
Wire Wire Line
	2950 5050 3450 5050
Wire Wire Line
	3100 5350 3100 5400
Text GLabel 3450 5050 2    60   Input ~ 0
SENSOR_ON
Text GLabel 3400 4650 2    60   Input ~ 0
SENSOR_ON_MCU
Wire Wire Line
	3400 4650 2950 4650
Connection ~ 3100 5050
Wire Wire Line
	1850 4650 1850 4750
Wire Wire Line
	1850 4750 3350 4750
Wire Wire Line
	1850 4850 1850 4950
Wire Wire Line
	1850 4950 3100 4950
Wire Wire Line
	3100 4950 3100 5050
$Comp
L VDD #PWR017
U 1 1 5A3B079C
P 5450 5250
F 0 "#PWR017" H 5450 5100 50  0001 C CNN
F 1 "VDD" H 5450 5400 50  0000 C CNN
F 2 "" H 5450 5250 50  0000 C CNN
F 3 "" H 5450 5250 50  0000 C CNN
	1    5450 5250
	-1   0    0    1   
$EndComp
Wire Wire Line
	5450 5100 5450 5250
Wire Wire Line
	4950 1150 4950 1050
Wire Wire Line
	4950 1050 5100 1050
Wire Wire Line
	5100 1050 5100 1300
Connection ~ 5050 1050
Wire Wire Line
	1900 1950 1900 1800
Wire Wire Line
	3050 1950 3050 1800
$EndSCHEMATC
